{
"instructions_readme": "1) Open Chrome, 2) go to chrome://tracing, 3) click Load, 4) navigate to this file.",
"traceEvents":[
{ "cat":"", "pid":1, "tid":0, "ts":0, "ph":"M", "name":"process_name", "args": { "name":"tundra" } }
,{ "pid":1, "tid":0, "ts":617928912979, "dur":528, "ph":"X", "name": "DriverCheckDagSignatures",  "args": { "durationMS":1, "detail":"" }}
,{ "pid":1, "tid":0, "ts":617928913507, "dur":402, "ph":"X", "name": "DriverInitData",  "args": { "durationMS":0, "detail":"" }}
,{ "pid":1, "tid":0, "ts":617928913990, "dur":11, "ph":"X", "name": "Tundra",  "args": { "durationMS":0, "detail":"PrepareNodes" }}
,{ "pid":1, "tid":0, "ts":617928914003, "dur":8, "ph":"X", "name": "Tundra",  "args": { "durationMS":0, "detail":"RemoveStaleOutputs" }}
,{ "pid":1, "tid":0, "ts":617928914013, "dur":363, "ph":"X", "name": "Tundra",  "args": { "durationMS":0, "detail":"BuildQueueInit" }}
,{ "pid":1, "tid":0, "ts":617928925916, "dur":15509, "ph":"X", "name": "JoinBuildThread",  "args": { "durationMS":16, "detail":"" }}
,{ "pid":1, "tid":0, "ts":617928941442, "dur":4, "ph":"X", "name": "JoinBuildThread",  "args": { "durationMS":0, "detail":"" }}
,{ "pid":1, "tid":0, "ts":617928941459, "dur":2, "ph":"X", "name": "JoinBuildThread",  "args": { "durationMS":0, "detail":"" }}
,{ "pid":1, "tid":0, "ts":617928941477, "dur":2, "ph":"X", "name": "JoinBuildThread",  "args": { "durationMS":0, "detail":"" }}
,{ "pid":1, "tid":0, "ts":617928941494, "dur":3, "ph":"X", "name": "JoinBuildThread",  "args": { "durationMS":0, "detail":"" }}
,{ "pid":1, "tid":0, "ts":617928941511, "dur":3, "ph":"X", "name": "JoinBuildThread",  "args": { "durationMS":0, "detail":"" }}
,{ "pid":1, "tid":0, "ts":617928941530, "dur":0, "ph":"X", "name": "SharedResourceDestroy",  "args": { "durationMS":0, "detail":"" }}
,{ "pid":1, "tid":0, "ts":617928941549, "dur":1323, "ph":"X", "name": "Tundra",  "args": { "durationMS":1, "detail":"Write AllBuiltNodes" }}
,{ "pid":1, "tid":1, "ts":617928914931, "dur":10989, "ph":"X", "name": "WaitingForWork", "cname":"thread_state_sleeping",  "args": { "durationMS":11, "detail":"" }}
,{ "pid":1, "tid":1, "ts":617928925920, "dur":15341, "ph":"X", "name": "Exiting",  "args": { "durationMS":15, "detail":"BuildLoop" }}
,{ "pid":1, "tid":2, "ts":617928914958, "dur":10960, "ph":"X", "name": "WaitingForWork", "cname":"thread_state_sleeping",  "args": { "durationMS":11, "detail":"" }}
,{ "pid":1, "tid":2, "ts":617928925919, "dur":15352, "ph":"X", "name": "Exiting",  "args": { "durationMS":15, "detail":"BuildLoop" }}
,{ "pid":1, "tid":3, "ts":617928915232, "dur":10688, "ph":"X", "name": "WaitingForWork", "cname":"thread_state_sleeping",  "args": { "durationMS":11, "detail":"" }}
,{ "pid":1, "tid":3, "ts":617928925920, "dur":15433, "ph":"X", "name": "Exiting",  "args": { "durationMS":15, "detail":"BuildLoop" }}
,{ "pid":1, "tid":4, "ts":617928914906, "dur":14, "ph":"X", "name": "CheckInputSignature",  "args": { "durationMS":0, "detail":"WriteResponseFile artifacts/rsp/2201984201338909344.rsp" }}
,{ "pid":1, "tid":4, "ts":617928915019, "dur":10793, "ph":"X", "name": "CheckInputSignature",  "args": { "durationMS":11, "detail":"Il2Cpp C:/Users/P283533/Desktop/DM Repo/UnderwaterWorld/LDI Under Water World Backup/Library/Il2cppBuildCache/WebGL/Native/build.bc" }}
,{ "pid":1, "tid":4, "ts":617928925898, "dur":0, "ph":"X", "name": "CheckInputSignature",  "args": { "durationMS":0, "detail":"all_tundra_nodes" }}
,{ "pid":1, "tid":4, "ts":617928925901, "dur":20, "ph":"X", "name": "WaitingForWork", "cname":"thread_state_sleeping",  "args": { "durationMS":0, "detail":"" }}
,{ "pid":1, "tid":4, "ts":617928925921, "dur":15425, "ph":"X", "name": "Exiting",  "args": { "durationMS":15, "detail":"BuildLoop" }}
,{ "pid":1, "tid":5, "ts":617928915747, "dur":10168, "ph":"X", "name": "WaitingForWork", "cname":"thread_state_sleeping",  "args": { "durationMS":10, "detail":"" }}
,{ "pid":1, "tid":5, "ts":617928925915, "dur":15444, "ph":"X", "name": "Exiting",  "args": { "durationMS":15, "detail":"BuildLoop" }}
,{ "pid":1, "tid":6, "ts":617928914983, "dur":10934, "ph":"X", "name": "WaitingForWork", "cname":"thread_state_sleeping",  "args": { "durationMS":11, "detail":"" }}
,{ "pid":1, "tid":6, "ts":617928925917, "dur":15355, "ph":"X", "name": "Exiting",  "args": { "durationMS":15, "detail":"BuildLoop" }}

]
}
