-a="C:\Users\P283533\Desktop\DM Repo\UnderwaterWorld\LDI Under Water World Backup\Library\PlayerScriptAssemblies\Assembly-CSharp.dll"
-a="C:\Users\P283533\Desktop\DM Repo\UnderwaterWorld\LDI Under Water World Backup\Library\PlayerScriptAssemblies\Unity.Postprocessing.Runtime.dll"
-a="C:\Users\P283533\Desktop\DM Repo\UnderwaterWorld\LDI Under Water World Backup\Library\PlayerScriptAssemblies\UnityEngine.TestRunner.dll"
-a="C:\Users\P283533\Desktop\DM Repo\UnderwaterWorld\LDI Under Water World Backup\Library\PlayerScriptAssemblies\Unity.Timeline.dll"
-a="C:\Users\P283533\Desktop\DM Repo\UnderwaterWorld\LDI Under Water World Backup\Library\PlayerScriptAssemblies\Unity.TextMeshPro.dll"
-a="C:\Users\P283533\Desktop\DM Repo\UnderwaterWorld\LDI Under Water World Backup\Library\PlayerScriptAssemblies\UnityEngine.UI.dll"
-a="C:\Users\P283533\Desktop\DM Repo\UnderwaterWorld\LDI Under Water World Backup\Library\PackageCache\com.unity.nuget.newtonsoft-json@2.0.0\Runtime\AOT\Newtonsoft.Json.dll"
-a="C:\Users\P283533\Desktop\DM Repo\UnderwaterWorld\LDI Under Water World Backup\Library\PackageCache\com.unity.nuget.newtonsoft-json@2.0.0\Runtime\Portable\Newtonsoft.Json.dll"
-a="C:\Users\P283533\Desktop\DM Repo\UnderwaterWorld\LDI Under Water World Backup\Library\PackageCache\com.unity.nuget.newtonsoft-json@2.0.0\Runtime\Newtonsoft.Json.dll"
-a="C:\Users\P283533\Desktop\DM Repo\UnderwaterWorld\LDI Under Water World Backup\Library\PackageCache\com.unity.ext.nunit@1.0.6\net35\unity-custom\nunit.framework.dll"
-s="C:\Program Files\Unity\Hub\Editor\2019.4.19f1\Editor\Data\Managed\UnityEngine"
-s="C:\Program Files\Unity\Hub\Editor\2019.4.19f1\Editor\Data\PlaybackEngines\WebGLSupport\Managed"
-s="C:\Users\P283533\Desktop\DM Repo\UnderwaterWorld\LDI Under Water World Backup\Library\PlayerScriptAssemblies"
-s="C:\Users\P283533\Desktop\DM Repo\UnderwaterWorld\LDI Under Water World Backup\Library\PackageCache\com.unity.nuget.newtonsoft-json@2.0.0\Runtime\AOT"
-s="C:\Users\P283533\Desktop\DM Repo\UnderwaterWorld\LDI Under Water World Backup\Library\PackageCache\com.unity.nuget.newtonsoft-json@2.0.0\Runtime\Portable"
-s="C:\Users\P283533\Desktop\DM Repo\UnderwaterWorld\LDI Under Water World Backup\Library\PackageCache\com.unity.nuget.newtonsoft-json@2.0.0\Runtime"
-s="C:\Users\P283533\Desktop\DM Repo\UnderwaterWorld\LDI Under Water World Backup\Library\PackageCache\com.unity.ext.nunit@1.0.6\net35\unity-custom"
-s="C:\Program Files\Unity\Hub\Editor\2019.4.19f1\Editor\Data\Managed\UnityEngine"
-s="C:\Program Files\Unity\Hub\Editor\2019.4.19f1\Editor\Data\PlaybackEngines\WebGLSupport\Managed"
-s="C:\Program Files\Unity\Hub\Editor\2019.4.19f1\Editor\Data\NetStandard\ref\2.0.0"
-s="C:\Program Files\Unity\Hub\Editor\2019.4.19f1\Editor\Data\NetStandard\compat\2.0.0\shims\netstandard"
-s="C:\Program Files\Unity\Hub\Editor\2019.4.19f1\Editor\Data\NetStandard\Extensions\2.0.0"
-s="C:\Program Files\Unity\Hub\Editor\2019.4.19f1\Editor\Data\NetStandard\compat\2.0.0\shims\netfx"
-o="C:\Users\P283533\Desktop\DM Repo\UnderwaterWorld\LDI Under Water World Backup\Library\BuildPlayerData\Player"
-rn="RuntimeInitializeOnLoads.json"
-tn="TypeDb-All.json"
